Total Log Lines: 15949554
Date range: 2012-01-01 03:35:03 to 2013-01-01 03:59:00
2012-01	1539426
2012-02	1325826
2012-03	1275790
2012-04	1015682
2012-05	1171310
2012-06	1301831
2012-07	1284231
2012-08	1452492
2012-09	1284603
2012-10	1498848
2012-11	1398038
2012-12	1395958
2013-01	5333
