Mon	6-8	2222944.530000005
Mon	18-20	3850825.7200000356
Mon	4-6	726002.7699999993
Mon	10-12	2684257.4100000025
Mon	12-14	2755075.9000000027
Mon	22-24	2916390.840000009
Mon	20-22	3707664.0500000236
Mon	2-4	385338.7699999998
Mon	16-18	3263737.210000008
Mon	0-2	1130379.230000001
Mon	8-10	3198890.200000011
Mon	14-16	3074878.730000006
Tue	6-8	2373313.3700000076
Tue	18-20	4234628.520000052
Tue	4-6	607777.0299999994
Tue	10-12	3040910.0800000033
Tue	12-14	3079869.0900000036
Tue	22-24	3553986.6500000153
Tue	20-22	4333696.470000054
Tue	2-4	369953.60999999975
Tue	16-18	3345189.8500000085
Tue	0-2	1198391.2400000026
Tue	8-10	3598462.030000017
Tue	14-16	3310278.810000007
Wed	6-8	2424878.140000006
Wed	18-20	4391756.850000067
Wed	4-6	651356.6399999995
Wed	10-12	3150942.6300000055
Wed	12-14	3318205.9700000077
Wed	22-24	3965191.770000033
Wed	20-22	4573623.700000061
Wed	2-4	458285.6199999995
Wed	16-18	3464548.310000009
Wed	0-2	1412102.140000005
Wed	8-10	3661215.620000023
Wed	14-16	3506951.8000000077
Thu	6-8	2497226.6400000057
Thu	18-20	4509067.210000072
Thu	4-6	725263.1699999992
Thu	10-12	3182773.810000009
Thu	12-14	3410435.500000009
Thu	22-24	4524405.8900000565
Thu	20-22	4756169.5300000645
Thu	2-4	553595.9699999996
Thu	16-18	3512249.920000015
Thu	0-2	1652783.6400000069
Thu	8-10	3707471.8400000264
Thu	14-16	3685616.820000013
Fri	6-8	2427735.2400000053
Fri	18-20	4303839.720000058
Fri	4-6	919224.5699999998
Fri	10-12	3057582.260000011
Fri	12-14	3299570.520000003
Fri	22-24	4233978.310000053
Fri	20-22	3976634.450000036
Fri	2-4	958645.2100000007
Fri	16-18	3435577.3800000115
Fri	0-2	2480482.190000009
Fri	8-10	3531067.49000002
Fri	14-16	3526165.160000007
Sat	6-8	1056654.320000002
Sat	18-20	3409736.570000027
Sat	4-6	936903.3099999997
Sat	10-12	2503610.860000012
Sat	12-14	2949129.0700000157
Sat	22-24	3687053.070000045
Sat	20-22	3149955.540000025
Sat	2-4	2131321.1000000066
Sat	16-18	2887788.6900000116
Sat	0-2	3467197.190000038
Sat	8-10	1785007.2200000065
Sat	14-16	2968782.2400000123
Sun	6-8	844097.5700000001
Sun	18-20	3149962.7500000116
Sun	4-6	931804.7399999998
Sun	10-12	2399316.2000000086
Sun	12-14	2978753.6900000093
Sun	22-24	2443709.220000002
Sun	20-22	2840764.450000008
Sun	2-4	2238257.8600000096
Sun	16-18	3196311.8100000117
Sun	0-2	3322545.7600000347
Sun	8-10	1419674.6400000036
Sun	14-16	3183003.4900000086
