<?xml version='1.0' encoding='utf-8'?>
<svg xmlns:xlink="http://www.w3.org/1999/xlink" xmlns="http://www.w3.org/2000/svg" id="chart-41dfeb0d-86ff-48b4-8af5-b4beaa7df3e2" class="pygal-chart" viewBox="0 0 800 600"><!--Generated with pygal 2.3.1 (lxml) ©Kozea 2012-2016 on 2017-04-30--><!--http://pygal.org--><!--http://github.com/Kozea/pygal--><defs><style type="text/css">#chart-41dfeb0d-86ff-48b4-8af5-b4beaa7df3e2{-webkit-user-select:none;-webkit-font-smoothing:antialiased;font-family:Consolas,"Liberation Mono",Menlo,Courier,monospace}#chart-41dfeb0d-86ff-48b4-8af5-b4beaa7df3e2 .title{font-family:Consolas,"Liberation Mono",Menlo,Courier,monospace;font-size:16px}#chart-41dfeb0d-86ff-48b4-8af5-b4beaa7df3e2 .legends .legend text{font-family:Consolas,"Liberation Mono",Menlo,Courier,monospace;font-size:14px}#chart-41dfeb0d-86ff-48b4-8af5-b4beaa7df3e2 .axis text{font-family:Consolas,"Liberation Mono",Menlo,Courier,monospace;font-size:10px}#chart-41dfeb0d-86ff-48b4-8af5-b4beaa7df3e2 .axis text.major{font-family:Consolas,"Liberation Mono",Menlo,Courier,monospace;font-size:10px}#chart-41dfeb0d-86ff-48b4-8af5-b4beaa7df3e2 .text-overlay text.value{font-family:Consolas,"Liberation Mono",Menlo,Courier,monospace;font-size:16px}#chart-41dfeb0d-86ff-48b4-8af5-b4beaa7df3e2 .text-overlay text.label{font-family:Consolas,"Liberation Mono",Menlo,Courier,monospace;font-size:10px}#chart-41dfeb0d-86ff-48b4-8af5-b4beaa7df3e2 .tooltip{font-family:Consolas,"Liberation Mono",Menlo,Courier,monospace;font-size:14px}#chart-41dfeb0d-86ff-48b4-8af5-b4beaa7df3e2 text.no_data{font-family:Consolas,"Liberation Mono",Menlo,Courier,monospace;font-size:64px}
#chart-41dfeb0d-86ff-48b4-8af5-b4beaa7df3e2{background-color:rgba(249,249,249,1)}#chart-41dfeb0d-86ff-48b4-8af5-b4beaa7df3e2 path,#chart-41dfeb0d-86ff-48b4-8af5-b4beaa7df3e2 line,#chart-41dfeb0d-86ff-48b4-8af5-b4beaa7df3e2 rect,#chart-41dfeb0d-86ff-48b4-8af5-b4beaa7df3e2 circle{-webkit-transition:150ms;-moz-transition:150ms;transition:150ms}#chart-41dfeb0d-86ff-48b4-8af5-b4beaa7df3e2 .graph &gt; .background{fill:rgba(249,249,249,1)}#chart-41dfeb0d-86ff-48b4-8af5-b4beaa7df3e2 .plot &gt; .background{fill:rgba(255,255,255,1)}#chart-41dfeb0d-86ff-48b4-8af5-b4beaa7df3e2 .graph{fill:rgba(0,0,0,.87)}#chart-41dfeb0d-86ff-48b4-8af5-b4beaa7df3e2 text.no_data{fill:rgba(0,0,0,1)}#chart-41dfeb0d-86ff-48b4-8af5-b4beaa7df3e2 .title{fill:rgba(0,0,0,1)}#chart-41dfeb0d-86ff-48b4-8af5-b4beaa7df3e2 .legends .legend text{fill:rgba(0,0,0,.87)}#chart-41dfeb0d-86ff-48b4-8af5-b4beaa7df3e2 .legends .legend:hover text{fill:rgba(0,0,0,1)}#chart-41dfeb0d-86ff-48b4-8af5-b4beaa7df3e2 .axis .line{stroke:rgba(0,0,0,1)}#chart-41dfeb0d-86ff-48b4-8af5-b4beaa7df3e2 .axis .guide.line{stroke:rgba(0,0,0,.54)}#chart-41dfeb0d-86ff-48b4-8af5-b4beaa7df3e2 .axis .major.line{stroke:rgba(0,0,0,.87)}#chart-41dfeb0d-86ff-48b4-8af5-b4beaa7df3e2 .axis text.major{fill:rgba(0,0,0,1)}#chart-41dfeb0d-86ff-48b4-8af5-b4beaa7df3e2 .axis.y .guides:hover .guide.line,#chart-41dfeb0d-86ff-48b4-8af5-b4beaa7df3e2 .line-graph .axis.x .guides:hover .guide.line,#chart-41dfeb0d-86ff-48b4-8af5-b4beaa7df3e2 .stackedline-graph .axis.x .guides:hover .guide.line,#chart-41dfeb0d-86ff-48b4-8af5-b4beaa7df3e2 .xy-graph .axis.x .guides:hover .guide.line{stroke:rgba(0,0,0,1)}#chart-41dfeb0d-86ff-48b4-8af5-b4beaa7df3e2 .axis .guides:hover text{fill:rgba(0,0,0,1)}#chart-41dfeb0d-86ff-48b4-8af5-b4beaa7df3e2 .reactive{fill-opacity:.7;stroke-opacity:.8}#chart-41dfeb0d-86ff-48b4-8af5-b4beaa7df3e2 .ci{stroke:rgba(0,0,0,.87)}#chart-41dfeb0d-86ff-48b4-8af5-b4beaa7df3e2 .reactive.active,#chart-41dfeb0d-86ff-48b4-8af5-b4beaa7df3e2 .active .reactive{fill-opacity:.8;stroke-opacity:.9;stroke-width:4}#chart-41dfeb0d-86ff-48b4-8af5-b4beaa7df3e2 .ci .reactive.active{stroke-width:1.5}#chart-41dfeb0d-86ff-48b4-8af5-b4beaa7df3e2 .series text{fill:rgba(0,0,0,1)}#chart-41dfeb0d-86ff-48b4-8af5-b4beaa7df3e2 .tooltip rect{fill:rgba(255,255,255,1);stroke:rgba(0,0,0,1);-webkit-transition:opacity 150ms;-moz-transition:opacity 150ms;transition:opacity 150ms}#chart-41dfeb0d-86ff-48b4-8af5-b4beaa7df3e2 .tooltip .label{fill:rgba(0,0,0,.87)}#chart-41dfeb0d-86ff-48b4-8af5-b4beaa7df3e2 .tooltip .label{fill:rgba(0,0,0,.87)}#chart-41dfeb0d-86ff-48b4-8af5-b4beaa7df3e2 .tooltip .legend{font-size:.8em;fill:rgba(0,0,0,.54)}#chart-41dfeb0d-86ff-48b4-8af5-b4beaa7df3e2 .tooltip .x_label{font-size:.6em;fill:rgba(0,0,0,1)}#chart-41dfeb0d-86ff-48b4-8af5-b4beaa7df3e2 .tooltip .xlink{font-size:.5em;text-decoration:underline}#chart-41dfeb0d-86ff-48b4-8af5-b4beaa7df3e2 .tooltip .value{font-size:1.5em}#chart-41dfeb0d-86ff-48b4-8af5-b4beaa7df3e2 .bound{font-size:.5em}#chart-41dfeb0d-86ff-48b4-8af5-b4beaa7df3e2 .max-value{font-size:.75em;fill:rgba(0,0,0,.54)}#chart-41dfeb0d-86ff-48b4-8af5-b4beaa7df3e2 .map-element{fill:rgba(255,255,255,1);stroke:rgba(0,0,0,.54) !important}#chart-41dfeb0d-86ff-48b4-8af5-b4beaa7df3e2 .map-element .reactive{fill-opacity:inherit;stroke-opacity:inherit}#chart-41dfeb0d-86ff-48b4-8af5-b4beaa7df3e2 .color-0,#chart-41dfeb0d-86ff-48b4-8af5-b4beaa7df3e2 .color-0 a:visited{stroke:#F44336;fill:#F44336}#chart-41dfeb0d-86ff-48b4-8af5-b4beaa7df3e2 .color-1,#chart-41dfeb0d-86ff-48b4-8af5-b4beaa7df3e2 .color-1 a:visited{stroke:#3F51B5;fill:#3F51B5}#chart-41dfeb0d-86ff-48b4-8af5-b4beaa7df3e2 .color-2,#chart-41dfeb0d-86ff-48b4-8af5-b4beaa7df3e2 .color-2 a:visited{stroke:#009688;fill:#009688}#chart-41dfeb0d-86ff-48b4-8af5-b4beaa7df3e2 .color-3,#chart-41dfeb0d-86ff-48b4-8af5-b4beaa7df3e2 .color-3 a:visited{stroke:#FFC107;fill:#FFC107}#chart-41dfeb0d-86ff-48b4-8af5-b4beaa7df3e2 .color-4,#chart-41dfeb0d-86ff-48b4-8af5-b4beaa7df3e2 .color-4 a:visited{stroke:#FF5722;fill:#FF5722}#chart-41dfeb0d-86ff-48b4-8af5-b4beaa7df3e2 .text-overlay .color-0 text{fill:black}#chart-41dfeb0d-86ff-48b4-8af5-b4beaa7df3e2 .text-overlay .color-1 text{fill:black}#chart-41dfeb0d-86ff-48b4-8af5-b4beaa7df3e2 .text-overlay .color-2 text{fill:black}#chart-41dfeb0d-86ff-48b4-8af5-b4beaa7df3e2 .text-overlay .color-3 text{fill:black}#chart-41dfeb0d-86ff-48b4-8af5-b4beaa7df3e2 .text-overlay .color-4 text{fill:black}
#chart-41dfeb0d-86ff-48b4-8af5-b4beaa7df3e2 text.no_data{text-anchor:middle}#chart-41dfeb0d-86ff-48b4-8af5-b4beaa7df3e2 .guide.line{fill:none}#chart-41dfeb0d-86ff-48b4-8af5-b4beaa7df3e2 .centered{text-anchor:middle}#chart-41dfeb0d-86ff-48b4-8af5-b4beaa7df3e2 .title{text-anchor:middle}#chart-41dfeb0d-86ff-48b4-8af5-b4beaa7df3e2 .legends .legend text{fill-opacity:1}#chart-41dfeb0d-86ff-48b4-8af5-b4beaa7df3e2 .axis.x text{text-anchor:middle}#chart-41dfeb0d-86ff-48b4-8af5-b4beaa7df3e2 .axis.x:not(.web) text[transform]{text-anchor:start}#chart-41dfeb0d-86ff-48b4-8af5-b4beaa7df3e2 .axis.x:not(.web) text[transform].backwards{text-anchor:end}#chart-41dfeb0d-86ff-48b4-8af5-b4beaa7df3e2 .axis.y text{text-anchor:end}#chart-41dfeb0d-86ff-48b4-8af5-b4beaa7df3e2 .axis.y text[transform].backwards{text-anchor:start}#chart-41dfeb0d-86ff-48b4-8af5-b4beaa7df3e2 .axis.y2 text{text-anchor:start}#chart-41dfeb0d-86ff-48b4-8af5-b4beaa7df3e2 .axis.y2 text[transform].backwards{text-anchor:end}#chart-41dfeb0d-86ff-48b4-8af5-b4beaa7df3e2 .axis .guide.line{stroke-dasharray:4,4}#chart-41dfeb0d-86ff-48b4-8af5-b4beaa7df3e2 .axis .major.guide.line{stroke-dasharray:6,6}#chart-41dfeb0d-86ff-48b4-8af5-b4beaa7df3e2 .horizontal .axis.y .guide.line,#chart-41dfeb0d-86ff-48b4-8af5-b4beaa7df3e2 .horizontal .axis.y2 .guide.line,#chart-41dfeb0d-86ff-48b4-8af5-b4beaa7df3e2 .vertical .axis.x .guide.line{opacity:0}#chart-41dfeb0d-86ff-48b4-8af5-b4beaa7df3e2 .horizontal .axis.always_show .guide.line,#chart-41dfeb0d-86ff-48b4-8af5-b4beaa7df3e2 .vertical .axis.always_show .guide.line{opacity:1 !important}#chart-41dfeb0d-86ff-48b4-8af5-b4beaa7df3e2 .axis.y .guides:hover .guide.line,#chart-41dfeb0d-86ff-48b4-8af5-b4beaa7df3e2 .axis.y2 .guides:hover .guide.line,#chart-41dfeb0d-86ff-48b4-8af5-b4beaa7df3e2 .axis.x .guides:hover .guide.line{opacity:1}#chart-41dfeb0d-86ff-48b4-8af5-b4beaa7df3e2 .axis .guides:hover text{opacity:1}#chart-41dfeb0d-86ff-48b4-8af5-b4beaa7df3e2 .nofill{fill:none}#chart-41dfeb0d-86ff-48b4-8af5-b4beaa7df3e2 .subtle-fill{fill-opacity:.2}#chart-41dfeb0d-86ff-48b4-8af5-b4beaa7df3e2 .dot{stroke-width:1px;fill-opacity:1}#chart-41dfeb0d-86ff-48b4-8af5-b4beaa7df3e2 .dot.active{stroke-width:5px}#chart-41dfeb0d-86ff-48b4-8af5-b4beaa7df3e2 .dot.negative{fill:transparent}#chart-41dfeb0d-86ff-48b4-8af5-b4beaa7df3e2 text,#chart-41dfeb0d-86ff-48b4-8af5-b4beaa7df3e2 tspan{stroke:none !important}#chart-41dfeb0d-86ff-48b4-8af5-b4beaa7df3e2 .series text.active{opacity:1}#chart-41dfeb0d-86ff-48b4-8af5-b4beaa7df3e2 .tooltip rect{fill-opacity:.95;stroke-width:.5}#chart-41dfeb0d-86ff-48b4-8af5-b4beaa7df3e2 .tooltip text{fill-opacity:1}#chart-41dfeb0d-86ff-48b4-8af5-b4beaa7df3e2 .showable{visibility:hidden}#chart-41dfeb0d-86ff-48b4-8af5-b4beaa7df3e2 .showable.shown{visibility:visible}#chart-41dfeb0d-86ff-48b4-8af5-b4beaa7df3e2 .gauge-background{fill:rgba(229,229,229,1);stroke:none}#chart-41dfeb0d-86ff-48b4-8af5-b4beaa7df3e2 .bg-lines{stroke:rgba(249,249,249,1);stroke-width:2px}</style><script type="text/javascript">window.pygal = window.pygal || {};window.pygal.config = window.pygal.config || {};window.pygal.config['41dfeb0d-86ff-48b4-8af5-b4beaa7df3e2'] = {"disable_xml_declaration": false, "dynamic_print_values": false, "show_x_labels": true, "width": 800, "show_minor_x_labels": true, "height": 600, "logarithmic": false, "x_labels_major": null, "legend_at_bottom_columns": null, "secondary_range": null, "legend_at_bottom": false, "margin": 20, "legend_box_size": 12, "x_labels_major_count": null, "margin_bottom": null, "js": ["//kozea.github.io/pygal.js/2.0.x/pygal-tooltips.min.js"], "show_y_guides": true, "inner_radius": 0, "force_uri_protocol": "https", "stroke_style": null, "y_labels_major_count": null, "missing_value_fill_truncation": "x", "x_labels": null, "y_label_rotation": 0, "x_label_rotation": 0, "interpolation_parameters": {}, "rounded_bars": null, "print_labels": false, "no_data_text": "No data", "interpolation_precision": 250, "truncate_label": null, "y_labels_major": null, "allow_interruptions": false, "y_labels": null, "show_legend": true, "x_labels_major_every": null, "show_only_major_dots": false, "classes": ["pygal-chart"], "max_scale": 16, "y_title": null, "formatter": null, "css": ["file://style.css", "file://graph.css"], "legends": ["East Village", "Lower East Side", "West Village", "Times Sq/Theatre District", "Clinton East"], "pretty_print": false, "order_min": null, "dots_size": 2.5, "explicit_size": false, "interpolate": null, "half_pie": false, "stack_from_top": false, "show_minor_y_labels": true, "y_labels_major_every": null, "defs": [], "strict": false, "margin_top": null, "truncate_legend": null, "no_prefix": false, "inverse_y_axis": false, "margin_left": null, "tooltip_fancy_mode": true, "min_scale": 4, "show_y_labels": true, "spacing": 10, "print_values": false, "title": "The most frequent pickup zone on Friday from 0 AM to 4 AM ", "print_zeroes": true, "stroke": true, "x_title": null, "include_x_axis": false, "show_x_guides": false, "range": null, "tooltip_border_radius": 0, "zero": 0, "margin_right": null, "style": {"value_label_font_family": "Consolas, \"Liberation Mono\", Menlo, Courier, monospace", "legend_font_family": "Consolas, \"Liberation Mono\", Menlo, Courier, monospace", "font_family": "Consolas, \"Liberation Mono\", Menlo, Courier, monospace", "legend_font_size": 14, "tooltip_font_size": 14, "tooltip_font_family": "Consolas, \"Liberation Mono\", Menlo, Courier, monospace", "value_background": "rgba(229, 229, 229, 1)", "foreground": "rgba(0, 0, 0, .87)", "background": "rgba(249, 249, 249, 1)", "value_label_font_size": 10, "ci_colors": [], "major_label_font_size": 10, "title_font_size": 16, "major_guide_stroke_dasharray": "6,6", "major_label_font_family": "Consolas, \"Liberation Mono\", Menlo, Courier, monospace", "stroke_opacity_hover": ".9", "value_font_size": 16, "guide_stroke_dasharray": "4,4", "plot_background": "rgba(255, 255, 255, 1)", "stroke_opacity": ".8", "title_font_family": "Consolas, \"Liberation Mono\", Menlo, Courier, monospace", "foreground_subtle": "rgba(0, 0, 0, .54)", "label_font_size": 10, "opacity": ".7", "foreground_strong": "rgba(0, 0, 0, 1)", "label_font_family": "Consolas, \"Liberation Mono\", Menlo, Courier, monospace", "value_font_family": "Consolas, \"Liberation Mono\", Menlo, Courier, monospace", "transition": "150ms", "no_data_font_size": 64, "opacity_hover": ".8", "value_colors": [], "colors": ["#F44336", "#3F51B5", "#009688", "#FFC107", "#FF5722", "#9C27B0", "#03A9F4", "#8BC34A", "#FF9800", "#E91E63", "#2196F3", "#4CAF50", "#FFEB3B", "#673AB7", "#00BCD4", "#CDDC39", "#9E9E9E", "#607D8B"], "no_data_font_family": "Consolas, \"Liberation Mono\", Menlo, Courier, monospace"}, "fill": false, "xrange": null, "print_values_position": "center", "box_mode": "extremes", "show_dots": true}</script><script type="text/javascript" xlink:href="https://kozea.github.io/pygal.js/2.0.x/pygal-tooltips.min.js"/></defs><title>The most frequent pickup zone on Friday from 0 AM to 4 AM </title><g class="graph horizontalbar-graph horizontal"><rect class="background" height="600" width="800" x="0" y="0"/><g class="plot" transform="translate(168, 46)"><rect class="background" height="514" width="612.0" x="0" y="0"/><g class="axis x"><g class="guides"><path class="axis major line" d="M11.769231 0.000000 v514.000000"/><text class="major" x="11.76923076923077" y="529.0">0</text></g><g class="guides"><path class="guide line" d="M108.295302 0.000000 v514.000000"/><text class="" x="108.29530164081703" y="529.0">10000</text></g><g class="guides"><path class="guide line" d="M204.821373 0.000000 v514.000000"/><text class="" x="204.8213725124033" y="529.0">20000</text></g><g class="guides"><path class="guide line" d="M301.347443 0.000000 v514.000000"/><text class="" x="301.34744338398957" y="529.0">30000</text></g><g class="guides"><path class="guide line" d="M397.873514 0.000000 v514.000000"/><text class="" x="397.8735142555758" y="529.0">40000</text></g><g class="guides"><path class="major guide line" d="M494.399585 0.000000 v514.000000"/><text class="major" x="494.3995851271621" y="529.0">50000</text></g><g class="guides"><path class="guide line" d="M590.925656 0.000000 v514.000000"/><text class="" x="590.9256559987483" y="529.0">60000</text></g></g><g class="series serie-4 color-4"><g class="bars"><g class="bar"><rect class="rect reactive tooltip-trigger" height="76.54646153846153" rx="0" ry="0" width="369.8782509728314" x="11.769230769230774" y="392.6960000000001"/><desc class="value">38319</desc><desc class="x centered">196.70835625564646</desc><desc class="y centered">430.9692307692309</desc></g></g></g><g class="series serie-3 color-3"><g class="bars"><g class="bar"><rect class="rect reactive tooltip-trigger" height="76.54646153846153" rx="0" ry="0" width="383.17954353893595" x="11.769230769230774" y="305.7113846153847"/><desc class="value">39697</desc><desc class="x centered">203.35900253869875</desc><desc class="y centered">343.9846153846155</desc></g></g></g><g class="series serie-2 color-2"><g class="bars"><g class="bar"><rect class="rect reactive tooltip-trigger" height="76.54646153846153" rx="0" ry="0" width="390.0135893566443" x="11.769230769230774" y="218.72676923076932"/><desc class="value">40405</desc><desc class="x centered">206.7760254475529</desc><desc class="y centered">257.0000000000001</desc></g></g></g><g class="series serie-1 color-1"><g class="bars"><g class="bar"><rect class="rect reactive tooltip-trigger" height="76.54646153846153" rx="0" ry="0" width="483.0647216768534" x="11.769230769230774" y="131.7421538461539"/><desc class="value">50045</desc><desc class="x centered">253.30159160765749</desc><desc class="y centered">170.01538461538468</desc></g></g></g><g class="series serie-0 color-0"><g class="bars"><g class="bar"><rect class="rect reactive tooltip-trigger" height="76.54646153846153" rx="0" ry="0" width="588.4615384615386" x="11.769230769230717" y="44.75753846153853"/><desc class="value">60964</desc><desc class="x centered">306.0</desc><desc class="y centered">83.0307692307693</desc></g></g></g></g><g class="titles"><text class="title plot_title" x="400.0" y="26">The most frequent pickup zone on Friday from 0 AM to 4 AM </text></g><g class="plot overlay" transform="translate(168, 46)"><g class="series serie-4 color-4"/><g class="series serie-3 color-3"/><g class="series serie-2 color-2"/><g class="series serie-1 color-1"/><g class="series serie-0 color-0"/></g><g class="plot text-overlay" transform="translate(168, 46)"><g class="series serie-4 color-4"/><g class="series serie-3 color-3"/><g class="series serie-2 color-2"/><g class="series serie-1 color-1"/><g class="series serie-0 color-0"/></g><g class="plot tooltip-overlay" transform="translate(168, 46)"><g class="tooltip" style="opacity: 0" transform="translate(0 0)"><rect class="tooltip-box" height="0" rx="0" ry="0" width="0"/><g class="text"/></g></g><g class="legends" transform="translate(10, 56)"><g class="legend reactive activate-serie" id="activate-serie-0"><rect class="color-0 reactive" height="12" width="12" x="0.0" y="1.0"/><text x="17.0" y="11.2">East Village</text></g><g class="legend reactive activate-serie" id="activate-serie-1"><rect class="color-1 reactive" height="12" width="12" x="0.0" y="22.0"/><text x="17.0" y="32.2">Lower East Side</text></g><g class="legend reactive activate-serie" id="activate-serie-2"><rect class="color-2 reactive" height="12" width="12" x="0.0" y="43.0"/><text x="17.0" y="53.2">West Village</text></g><g class="legend reactive activate-serie" id="activate-serie-3"><rect class="color-3 reactive" height="12" width="12" x="0.0" y="64.0"/><text x="17.0" y="74.2">Times Sq/Theat…</text><title>Times Sq/Theatre District</title></g><g class="legend reactive activate-serie" id="activate-serie-4"><rect class="color-4 reactive" height="12" width="12" x="0.0" y="85.0"/><text x="17.0" y="95.2">Clinton East</text></g></g><g class="legends" transform="translate(790, 56)"/></g></svg>