<?xml version='1.0' encoding='utf-8'?>
<svg xmlns:xlink="http://www.w3.org/1999/xlink" xmlns="http://www.w3.org/2000/svg" id="chart-268ce6fe-d24f-4347-99ae-3235e355ab84" class="pygal-chart" viewBox="0 0 800 600"><!--Generated with pygal 2.3.1 (lxml) ©Kozea 2012-2016 on 2017-04-30--><!--http://pygal.org--><!--http://github.com/Kozea/pygal--><defs><style type="text/css">#chart-268ce6fe-d24f-4347-99ae-3235e355ab84{-webkit-user-select:none;-webkit-font-smoothing:antialiased;font-family:Consolas,"Liberation Mono",Menlo,Courier,monospace}#chart-268ce6fe-d24f-4347-99ae-3235e355ab84 .title{font-family:Consolas,"Liberation Mono",Menlo,Courier,monospace;font-size:16px}#chart-268ce6fe-d24f-4347-99ae-3235e355ab84 .legends .legend text{font-family:Consolas,"Liberation Mono",Menlo,Courier,monospace;font-size:14px}#chart-268ce6fe-d24f-4347-99ae-3235e355ab84 .axis text{font-family:Consolas,"Liberation Mono",Menlo,Courier,monospace;font-size:10px}#chart-268ce6fe-d24f-4347-99ae-3235e355ab84 .axis text.major{font-family:Consolas,"Liberation Mono",Menlo,Courier,monospace;font-size:10px}#chart-268ce6fe-d24f-4347-99ae-3235e355ab84 .text-overlay text.value{font-family:Consolas,"Liberation Mono",Menlo,Courier,monospace;font-size:16px}#chart-268ce6fe-d24f-4347-99ae-3235e355ab84 .text-overlay text.label{font-family:Consolas,"Liberation Mono",Menlo,Courier,monospace;font-size:10px}#chart-268ce6fe-d24f-4347-99ae-3235e355ab84 .tooltip{font-family:Consolas,"Liberation Mono",Menlo,Courier,monospace;font-size:14px}#chart-268ce6fe-d24f-4347-99ae-3235e355ab84 text.no_data{font-family:Consolas,"Liberation Mono",Menlo,Courier,monospace;font-size:64px}
#chart-268ce6fe-d24f-4347-99ae-3235e355ab84{background-color:rgba(249,249,249,1)}#chart-268ce6fe-d24f-4347-99ae-3235e355ab84 path,#chart-268ce6fe-d24f-4347-99ae-3235e355ab84 line,#chart-268ce6fe-d24f-4347-99ae-3235e355ab84 rect,#chart-268ce6fe-d24f-4347-99ae-3235e355ab84 circle{-webkit-transition:150ms;-moz-transition:150ms;transition:150ms}#chart-268ce6fe-d24f-4347-99ae-3235e355ab84 .graph &gt; .background{fill:rgba(249,249,249,1)}#chart-268ce6fe-d24f-4347-99ae-3235e355ab84 .plot &gt; .background{fill:rgba(255,255,255,1)}#chart-268ce6fe-d24f-4347-99ae-3235e355ab84 .graph{fill:rgba(0,0,0,.87)}#chart-268ce6fe-d24f-4347-99ae-3235e355ab84 text.no_data{fill:rgba(0,0,0,1)}#chart-268ce6fe-d24f-4347-99ae-3235e355ab84 .title{fill:rgba(0,0,0,1)}#chart-268ce6fe-d24f-4347-99ae-3235e355ab84 .legends .legend text{fill:rgba(0,0,0,.87)}#chart-268ce6fe-d24f-4347-99ae-3235e355ab84 .legends .legend:hover text{fill:rgba(0,0,0,1)}#chart-268ce6fe-d24f-4347-99ae-3235e355ab84 .axis .line{stroke:rgba(0,0,0,1)}#chart-268ce6fe-d24f-4347-99ae-3235e355ab84 .axis .guide.line{stroke:rgba(0,0,0,.54)}#chart-268ce6fe-d24f-4347-99ae-3235e355ab84 .axis .major.line{stroke:rgba(0,0,0,.87)}#chart-268ce6fe-d24f-4347-99ae-3235e355ab84 .axis text.major{fill:rgba(0,0,0,1)}#chart-268ce6fe-d24f-4347-99ae-3235e355ab84 .axis.y .guides:hover .guide.line,#chart-268ce6fe-d24f-4347-99ae-3235e355ab84 .line-graph .axis.x .guides:hover .guide.line,#chart-268ce6fe-d24f-4347-99ae-3235e355ab84 .stackedline-graph .axis.x .guides:hover .guide.line,#chart-268ce6fe-d24f-4347-99ae-3235e355ab84 .xy-graph .axis.x .guides:hover .guide.line{stroke:rgba(0,0,0,1)}#chart-268ce6fe-d24f-4347-99ae-3235e355ab84 .axis .guides:hover text{fill:rgba(0,0,0,1)}#chart-268ce6fe-d24f-4347-99ae-3235e355ab84 .reactive{fill-opacity:.7;stroke-opacity:.8}#chart-268ce6fe-d24f-4347-99ae-3235e355ab84 .ci{stroke:rgba(0,0,0,.87)}#chart-268ce6fe-d24f-4347-99ae-3235e355ab84 .reactive.active,#chart-268ce6fe-d24f-4347-99ae-3235e355ab84 .active .reactive{fill-opacity:.8;stroke-opacity:.9;stroke-width:4}#chart-268ce6fe-d24f-4347-99ae-3235e355ab84 .ci .reactive.active{stroke-width:1.5}#chart-268ce6fe-d24f-4347-99ae-3235e355ab84 .series text{fill:rgba(0,0,0,1)}#chart-268ce6fe-d24f-4347-99ae-3235e355ab84 .tooltip rect{fill:rgba(255,255,255,1);stroke:rgba(0,0,0,1);-webkit-transition:opacity 150ms;-moz-transition:opacity 150ms;transition:opacity 150ms}#chart-268ce6fe-d24f-4347-99ae-3235e355ab84 .tooltip .label{fill:rgba(0,0,0,.87)}#chart-268ce6fe-d24f-4347-99ae-3235e355ab84 .tooltip .label{fill:rgba(0,0,0,.87)}#chart-268ce6fe-d24f-4347-99ae-3235e355ab84 .tooltip .legend{font-size:.8em;fill:rgba(0,0,0,.54)}#chart-268ce6fe-d24f-4347-99ae-3235e355ab84 .tooltip .x_label{font-size:.6em;fill:rgba(0,0,0,1)}#chart-268ce6fe-d24f-4347-99ae-3235e355ab84 .tooltip .xlink{font-size:.5em;text-decoration:underline}#chart-268ce6fe-d24f-4347-99ae-3235e355ab84 .tooltip .value{font-size:1.5em}#chart-268ce6fe-d24f-4347-99ae-3235e355ab84 .bound{font-size:.5em}#chart-268ce6fe-d24f-4347-99ae-3235e355ab84 .max-value{font-size:.75em;fill:rgba(0,0,0,.54)}#chart-268ce6fe-d24f-4347-99ae-3235e355ab84 .map-element{fill:rgba(255,255,255,1);stroke:rgba(0,0,0,.54) !important}#chart-268ce6fe-d24f-4347-99ae-3235e355ab84 .map-element .reactive{fill-opacity:inherit;stroke-opacity:inherit}#chart-268ce6fe-d24f-4347-99ae-3235e355ab84 .color-0,#chart-268ce6fe-d24f-4347-99ae-3235e355ab84 .color-0 a:visited{stroke:#F44336;fill:#F44336}#chart-268ce6fe-d24f-4347-99ae-3235e355ab84 .color-1,#chart-268ce6fe-d24f-4347-99ae-3235e355ab84 .color-1 a:visited{stroke:#3F51B5;fill:#3F51B5}#chart-268ce6fe-d24f-4347-99ae-3235e355ab84 .color-2,#chart-268ce6fe-d24f-4347-99ae-3235e355ab84 .color-2 a:visited{stroke:#009688;fill:#009688}#chart-268ce6fe-d24f-4347-99ae-3235e355ab84 .color-3,#chart-268ce6fe-d24f-4347-99ae-3235e355ab84 .color-3 a:visited{stroke:#FFC107;fill:#FFC107}#chart-268ce6fe-d24f-4347-99ae-3235e355ab84 .color-4,#chart-268ce6fe-d24f-4347-99ae-3235e355ab84 .color-4 a:visited{stroke:#FF5722;fill:#FF5722}#chart-268ce6fe-d24f-4347-99ae-3235e355ab84 .text-overlay .color-0 text{fill:black}#chart-268ce6fe-d24f-4347-99ae-3235e355ab84 .text-overlay .color-1 text{fill:black}#chart-268ce6fe-d24f-4347-99ae-3235e355ab84 .text-overlay .color-2 text{fill:black}#chart-268ce6fe-d24f-4347-99ae-3235e355ab84 .text-overlay .color-3 text{fill:black}#chart-268ce6fe-d24f-4347-99ae-3235e355ab84 .text-overlay .color-4 text{fill:black}
#chart-268ce6fe-d24f-4347-99ae-3235e355ab84 text.no_data{text-anchor:middle}#chart-268ce6fe-d24f-4347-99ae-3235e355ab84 .guide.line{fill:none}#chart-268ce6fe-d24f-4347-99ae-3235e355ab84 .centered{text-anchor:middle}#chart-268ce6fe-d24f-4347-99ae-3235e355ab84 .title{text-anchor:middle}#chart-268ce6fe-d24f-4347-99ae-3235e355ab84 .legends .legend text{fill-opacity:1}#chart-268ce6fe-d24f-4347-99ae-3235e355ab84 .axis.x text{text-anchor:middle}#chart-268ce6fe-d24f-4347-99ae-3235e355ab84 .axis.x:not(.web) text[transform]{text-anchor:start}#chart-268ce6fe-d24f-4347-99ae-3235e355ab84 .axis.x:not(.web) text[transform].backwards{text-anchor:end}#chart-268ce6fe-d24f-4347-99ae-3235e355ab84 .axis.y text{text-anchor:end}#chart-268ce6fe-d24f-4347-99ae-3235e355ab84 .axis.y text[transform].backwards{text-anchor:start}#chart-268ce6fe-d24f-4347-99ae-3235e355ab84 .axis.y2 text{text-anchor:start}#chart-268ce6fe-d24f-4347-99ae-3235e355ab84 .axis.y2 text[transform].backwards{text-anchor:end}#chart-268ce6fe-d24f-4347-99ae-3235e355ab84 .axis .guide.line{stroke-dasharray:4,4}#chart-268ce6fe-d24f-4347-99ae-3235e355ab84 .axis .major.guide.line{stroke-dasharray:6,6}#chart-268ce6fe-d24f-4347-99ae-3235e355ab84 .horizontal .axis.y .guide.line,#chart-268ce6fe-d24f-4347-99ae-3235e355ab84 .horizontal .axis.y2 .guide.line,#chart-268ce6fe-d24f-4347-99ae-3235e355ab84 .vertical .axis.x .guide.line{opacity:0}#chart-268ce6fe-d24f-4347-99ae-3235e355ab84 .horizontal .axis.always_show .guide.line,#chart-268ce6fe-d24f-4347-99ae-3235e355ab84 .vertical .axis.always_show .guide.line{opacity:1 !important}#chart-268ce6fe-d24f-4347-99ae-3235e355ab84 .axis.y .guides:hover .guide.line,#chart-268ce6fe-d24f-4347-99ae-3235e355ab84 .axis.y2 .guides:hover .guide.line,#chart-268ce6fe-d24f-4347-99ae-3235e355ab84 .axis.x .guides:hover .guide.line{opacity:1}#chart-268ce6fe-d24f-4347-99ae-3235e355ab84 .axis .guides:hover text{opacity:1}#chart-268ce6fe-d24f-4347-99ae-3235e355ab84 .nofill{fill:none}#chart-268ce6fe-d24f-4347-99ae-3235e355ab84 .subtle-fill{fill-opacity:.2}#chart-268ce6fe-d24f-4347-99ae-3235e355ab84 .dot{stroke-width:1px;fill-opacity:1}#chart-268ce6fe-d24f-4347-99ae-3235e355ab84 .dot.active{stroke-width:5px}#chart-268ce6fe-d24f-4347-99ae-3235e355ab84 .dot.negative{fill:transparent}#chart-268ce6fe-d24f-4347-99ae-3235e355ab84 text,#chart-268ce6fe-d24f-4347-99ae-3235e355ab84 tspan{stroke:none !important}#chart-268ce6fe-d24f-4347-99ae-3235e355ab84 .series text.active{opacity:1}#chart-268ce6fe-d24f-4347-99ae-3235e355ab84 .tooltip rect{fill-opacity:.95;stroke-width:.5}#chart-268ce6fe-d24f-4347-99ae-3235e355ab84 .tooltip text{fill-opacity:1}#chart-268ce6fe-d24f-4347-99ae-3235e355ab84 .showable{visibility:hidden}#chart-268ce6fe-d24f-4347-99ae-3235e355ab84 .showable.shown{visibility:visible}#chart-268ce6fe-d24f-4347-99ae-3235e355ab84 .gauge-background{fill:rgba(229,229,229,1);stroke:none}#chart-268ce6fe-d24f-4347-99ae-3235e355ab84 .bg-lines{stroke:rgba(249,249,249,1);stroke-width:2px}</style><script type="text/javascript">window.pygal = window.pygal || {};window.pygal.config = window.pygal.config || {};window.pygal.config['268ce6fe-d24f-4347-99ae-3235e355ab84'] = {"disable_xml_declaration": false, "dynamic_print_values": false, "show_x_labels": true, "width": 800, "show_minor_x_labels": true, "height": 600, "logarithmic": false, "x_labels_major": null, "legend_at_bottom_columns": null, "secondary_range": null, "legend_at_bottom": false, "margin": 20, "legend_box_size": 12, "x_labels_major_count": null, "margin_bottom": null, "js": ["//kozea.github.io/pygal.js/2.0.x/pygal-tooltips.min.js"], "show_y_guides": true, "inner_radius": 0, "force_uri_protocol": "https", "stroke_style": null, "y_labels_major_count": null, "missing_value_fill_truncation": "x", "x_labels": null, "y_label_rotation": 0, "x_label_rotation": 0, "interpolation_parameters": {}, "rounded_bars": null, "print_labels": false, "no_data_text": "No data", "interpolation_precision": 250, "truncate_label": null, "y_labels_major": null, "allow_interruptions": false, "y_labels": null, "show_legend": true, "x_labels_major_every": null, "show_only_major_dots": false, "classes": ["pygal-chart"], "max_scale": 16, "y_title": null, "formatter": null, "css": ["file://style.css", "file://graph.css"], "legends": ["Upper East Side South", "Midtown Center", "Upper East Side North", "Penn Station/Madison Sq West", "Murray Hill"], "pretty_print": false, "order_min": null, "dots_size": 2.5, "explicit_size": false, "interpolate": null, "half_pie": false, "stack_from_top": false, "show_minor_y_labels": true, "y_labels_major_every": null, "defs": [], "strict": false, "margin_top": null, "truncate_legend": null, "no_prefix": false, "inverse_y_axis": false, "margin_left": null, "tooltip_fancy_mode": true, "min_scale": 4, "show_y_labels": true, "spacing": 10, "print_values": false, "title": "The most frequent pickup zone on Friday", "print_zeroes": true, "stroke": true, "x_title": null, "include_x_axis": false, "show_x_guides": false, "range": null, "tooltip_border_radius": 0, "zero": 0, "margin_right": null, "style": {"value_label_font_family": "Consolas, \"Liberation Mono\", Menlo, Courier, monospace", "legend_font_family": "Consolas, \"Liberation Mono\", Menlo, Courier, monospace", "font_family": "Consolas, \"Liberation Mono\", Menlo, Courier, monospace", "legend_font_size": 14, "tooltip_font_size": 14, "tooltip_font_family": "Consolas, \"Liberation Mono\", Menlo, Courier, monospace", "value_background": "rgba(229, 229, 229, 1)", "foreground": "rgba(0, 0, 0, .87)", "background": "rgba(249, 249, 249, 1)", "value_label_font_size": 10, "ci_colors": [], "major_label_font_size": 10, "title_font_size": 16, "major_guide_stroke_dasharray": "6,6", "major_label_font_family": "Consolas, \"Liberation Mono\", Menlo, Courier, monospace", "stroke_opacity_hover": ".9", "value_font_size": 16, "guide_stroke_dasharray": "4,4", "plot_background": "rgba(255, 255, 255, 1)", "stroke_opacity": ".8", "title_font_family": "Consolas, \"Liberation Mono\", Menlo, Courier, monospace", "foreground_subtle": "rgba(0, 0, 0, .54)", "label_font_size": 10, "opacity": ".7", "foreground_strong": "rgba(0, 0, 0, 1)", "label_font_family": "Consolas, \"Liberation Mono\", Menlo, Courier, monospace", "value_font_family": "Consolas, \"Liberation Mono\", Menlo, Courier, monospace", "transition": "150ms", "no_data_font_size": 64, "opacity_hover": ".8", "value_colors": [], "colors": ["#F44336", "#3F51B5", "#009688", "#FFC107", "#FF5722", "#9C27B0", "#03A9F4", "#8BC34A", "#FF9800", "#E91E63", "#2196F3", "#4CAF50", "#FFEB3B", "#673AB7", "#00BCD4", "#CDDC39", "#9E9E9E", "#607D8B"], "no_data_font_family": "Consolas, \"Liberation Mono\", Menlo, Courier, monospace"}, "fill": false, "xrange": null, "print_values_position": "center", "box_mode": "extremes", "show_dots": true}</script><script type="text/javascript" xlink:href="https://kozea.github.io/pygal.js/2.0.x/pygal-tooltips.min.js"/></defs><title>The most frequent pickup zone on Friday</title><g class="graph horizontalbar-graph horizontal"><rect class="background" height="600" width="800" x="0" y="0"/><g class="plot" transform="translate(168, 46)"><rect class="background" height="514" width="612.0" x="0" y="0"/><g class="axis x"><g class="guides"><path class="axis major line" d="M11.769231 0.000000 v514.000000"/><text class="major" x="11.76923076923077" y="529.0">0</text></g><g class="guides"><path class="guide line" d="M76.905784 0.000000 v514.000000"/><text class="" x="76.90578444526327" y="529.0">40000</text></g><g class="guides"><path class="guide line" d="M142.042338 0.000000 v514.000000"/><text class="" x="142.04233812129576" y="529.0">80000</text></g><g class="guides"><path class="guide line" d="M207.178892 0.000000 v514.000000"/><text class="" x="207.17889179732825" y="529.0">120000</text></g><g class="guides"><path class="guide line" d="M272.315445 0.000000 v514.000000"/><text class="" x="272.3154454733608" y="529.0">160000</text></g><g class="guides"><path class="guide line" d="M337.451999 0.000000 v514.000000"/><text class="" x="337.45199914939326" y="529.0">200000</text></g><g class="guides"><path class="guide line" d="M402.588553 0.000000 v514.000000"/><text class="" x="402.58855282542584" y="529.0">240000</text></g><g class="guides"><path class="guide line" d="M467.725107 0.000000 v514.000000"/><text class="" x="467.72510650145824" y="529.0">280000</text></g><g class="guides"><path class="guide line" d="M532.861660 0.000000 v514.000000"/><text class="" x="532.8616601774908" y="529.0">320000</text></g><g class="guides"><path class="guide line" d="M597.998214 0.000000 v514.000000"/><text class="" x="597.9982138535232" y="529.0">360000</text></g></g><g class="series serie-4 color-4"><g class="bars"><g class="bar"><rect class="rect reactive tooltip-trigger" height="76.54646153846153" rx="0" ry="0" width="511.8837491323109" x="11.769230769230774" y="392.6960000000001"/><desc class="value">314345</desc><desc class="x centered">267.71110533538626</desc><desc class="y centered">430.9692307692309</desc></g></g></g><g class="series serie-3 color-3"><g class="bars"><g class="bar"><rect class="rect reactive tooltip-trigger" height="76.54646153846153" rx="0" ry="0" width="529.2149576516613" x="11.769230769230717" y="305.7113846153847"/><desc class="value">324988</desc><desc class="x centered">276.37670959506136</desc><desc class="y centered">343.9846153846155</desc></g></g></g><g class="series serie-2 color-2"><g class="bars"><g class="bar"><rect class="rect reactive tooltip-trigger" height="76.54646153846153" rx="0" ry="0" width="534.0888002804704" x="11.769230769230717" y="218.72676923076932"/><desc class="value">327981</desc><desc class="x centered">278.8136309094659</desc><desc class="y centered">257.0000000000001</desc></g></g></g><g class="series serie-1 color-1"><g class="bars"><g class="bar"><rect class="rect reactive tooltip-trigger" height="76.54646153846153" rx="0" ry="0" width="543.0809015154467" x="11.769230769230717" y="131.7421538461539"/><desc class="value">333503</desc><desc class="x centered">283.3096815269541</desc><desc class="y centered">170.01538461538468</desc></g></g></g><g class="series serie-0 color-0"><g class="bars"><g class="bar"><rect class="rect reactive tooltip-trigger" height="76.54646153846153" rx="0" ry="0" width="588.4615384615386" x="11.769230769230717" y="44.75753846153853"/><desc class="value">361371</desc><desc class="x centered">306.0</desc><desc class="y centered">83.0307692307693</desc></g></g></g></g><g class="titles"><text class="title plot_title" x="400.0" y="26">The most frequent pickup zone on Friday</text></g><g class="plot overlay" transform="translate(168, 46)"><g class="series serie-4 color-4"/><g class="series serie-3 color-3"/><g class="series serie-2 color-2"/><g class="series serie-1 color-1"/><g class="series serie-0 color-0"/></g><g class="plot text-overlay" transform="translate(168, 46)"><g class="series serie-4 color-4"/><g class="series serie-3 color-3"/><g class="series serie-2 color-2"/><g class="series serie-1 color-1"/><g class="series serie-0 color-0"/></g><g class="plot tooltip-overlay" transform="translate(168, 46)"><g class="tooltip" style="opacity: 0" transform="translate(0 0)"><rect class="tooltip-box" height="0" rx="0" ry="0" width="0"/><g class="text"/></g></g><g class="legends" transform="translate(10, 56)"><g class="legend reactive activate-serie" id="activate-serie-0"><rect class="color-0 reactive" height="12" width="12" x="0.0" y="1.0"/><text x="17.0" y="11.2">Upper East Sid…</text><title>Upper East Side South</title></g><g class="legend reactive activate-serie" id="activate-serie-1"><rect class="color-1 reactive" height="12" width="12" x="0.0" y="22.0"/><text x="17.0" y="32.2">Midtown Center</text></g><g class="legend reactive activate-serie" id="activate-serie-2"><rect class="color-2 reactive" height="12" width="12" x="0.0" y="43.0"/><text x="17.0" y="53.2">Upper East Sid…</text><title>Upper East Side North</title></g><g class="legend reactive activate-serie" id="activate-serie-3"><rect class="color-3 reactive" height="12" width="12" x="0.0" y="64.0"/><text x="17.0" y="74.2">Penn Station/M…</text><title>Penn Station/Madison Sq West</title></g><g class="legend reactive activate-serie" id="activate-serie-4"><rect class="color-4 reactive" height="12" width="12" x="0.0" y="85.0"/><text x="17.0" y="95.2">Murray Hill</text></g></g><g class="legends" transform="translate(790, 56)"/></g></svg>