Mon	6-8	15522835.629999999
Mon	18-20	25781856.370000005
Mon	4-6	5410895.259999999
Mon	10-12	20499491.27999999
Mon	12-14	21395755.449999988
Mon	22-24	19709675.35
Mon	20-22	24291037.919999998
Mon	2-4	3598759.7
Mon	16-18	23419463.42
Mon	0-2	8999081.41
Mon	8-10	22088800.929999996
Mon	14-16	23953562.379999995
Tue	6-8	16421329.940000007
Tue	18-20	27971310.180000015
Tue	4-6	4534454.489999999
Tue	10-12	22436030.030000012
Tue	12-14	23395970.14
Tue	22-24	23369154.749999996
Tue	20-22	27855408.349999998
Tue	2-4	3291094.4299999997
Tue	16-18	23556295.590000004
Tue	0-2	8987611.47
Tue	8-10	24551743.340000007
Tue	14-16	25554020.269999996
Wed	6-8	16564245.029999997
Wed	18-20	28939569.30000001
Wed	4-6	4770482.689999999
Wed	10-12	23009717.86999999
Wed	12-14	24997684.20000001
Wed	22-24	25948297.57999999
Wed	20-22	29479631.509999998
Wed	2-4	3844089.0100000002
Wed	16-18	24885667.310000006
Wed	0-2	10245997.259999998
Wed	8-10	24683686.19
Wed	14-16	26262516.370000005
Thu	6-8	17046136.080000002
Thu	18-20	30000798.49
Thu	4-6	5255981.180000002
Thu	10-12	23383988.809999995
Thu	12-14	25584256.930000003
Thu	22-24	30451607.30000001
Thu	20-22	31303520.799999997
Thu	2-4	4605524.22
Thu	16-18	24764922.290000007
Thu	0-2	11826412.260000002
Thu	8-10	25095396.16
Thu	14-16	27699944.68
Fri	6-8	16703546.469999999
Fri	18-20	30097918.830000013
Fri	4-6	6887638.6000000015
Fri	10-12	23088929.62000001
Fri	12-14	25122215.45
Fri	22-24	30415504.880000014
Fri	20-22	28044076.049999997
Fri	2-4	7690675.330000001
Fri	16-18	25078403.369999997
Fri	0-2	17486110.94
Fri	8-10	24304336.769999992
Fri	14-16	27243120.49999999
Sat	6-8	8256530.34
Sat	18-20	27437168.69
Sat	4-6	8127634.160000002
Sat	10-12	20311142.2
Sat	12-14	24049329.770000003
Sat	22-24	27757751.290000003
Sat	20-22	24278112.220000003
Sat	2-4	16042116.930000002
Sat	16-18	23950157.63
Sat	0-2	24890826.66
Sat	8-10	13878849.62
Sat	14-16	24809794.120000005
Sun	6-8	6967527.909999998
Sun	18-20	23694016.88999999
Sun	4-6	8985128.24
Sun	10-12	19879875.589999996
Sun	12-14	23242576.590000015
Sun	22-24	17797592.599999998
Sun	20-22	20257934.23
Sun	2-4	16894658.38
Sun	16-18	24523969.810000002
Sun	0-2	24290603.019999992
Sun	8-10	11314073.24
Sun	14-16	25021871.929999996
